d000.s000.t000	verb.communication
d000.s000.t001	noun.act
d000.s000.t002	verb.communication
d000.s001.t000	verb.communication
d000.s001.t001	verb.communication
d000.s001.t002	adj.all
d000.s001.t003	noun.event
d000.s001.t004	noun.possession
d000.s002.t000	adj.all
d000.s002.t001	noun.communication
d000.s003.t000	verb.change
d000.s004.t000	verb.creation
d000.s004.t001	verb.cognition
d000.s005.t000	verb.communication
d000.s005.t001	verb.communication
d000.s006.t000	verb.perception
d000.s006.t001	noun.Tops
d000.s006.t002	verb.communication
d000.s006.t003	verb.creation
d000.s006.t004	ex_tory
d000.s007.t000	verb.change
d000.s008.t000	noun.group
d000.s008.t001	noun.state
d000.s008.t002	noun.artifact
d000.s008.t003	noun.state
d000.s008.t004	noun.state
d000.s009.t000	verb.communication
d000.s009.t001	noun.state
d000.s009.t002	entertainers
d000.s009.t003	noun.Tops
d000.s009.t004	noun.group
d000.s009.t005	verb.creation
d000.s009.t006	verb.stative
d000.s009.t007	noun.artifact
d000.s010.t000	noun.act
d000.s010.t001	verb.stative
d000.s010.t002	noun.cognition
d000.s011.t000	verb.emotion
d000.s011.t001	verb.social
d000.s012.t000	verb.consumption
d000.s012.t001	verb.body
d000.s012.t002	adj.all
d000.s012.t003	verb.possession
d000.s012.t004	adj.all
d000.s014.t000	noun.act
d000.s014.t001	verb.communication
d000.s015.t000	verb.perception
d000.s015.t001	verb.perception
d000.s015.t002	verb.change
d000.s015.t003	verb.perception
d000.s015.t004	noun.group
d000.s016.t000	noun.cognition
d000.s016.t001	verb.creation
d000.s016.t002	verb.stative
d000.s016.t003	adj.all
d000.s016.t004	noun.Tops
d000.s016.t005	noun.possession
d000.s018.t000	verb.communication
d000.s018.t001	noun.person
d000.s018.t002	noun.Tops
d000.s018.t003	noun.state
d000.s018.t004	verb.possession
d000.s019.t000	cincinnati
d000.s020.t000	verb.cognition
d000.s020.t001	akita
d000.s021.t000	verb.stative
d000.s024.t000	verb.communication
d000.s024.t001	verb.perception
d000.s024.t002	noun.process
d000.s024.t003	verb.creation
d000.s024.t004	noun.attribute
d000.s024.t005	noun.quantity
d000.s024.t006	noun.person
d000.s025.t000	verb.emotion
d000.s025.t001	verb.cognition
d000.s026.t000	noun.act
d000.s026.t001	verb.contact
d000.s026.t002	noun.communication
d000.s026.t003	verb.social
d000.s028.t000	noun.time
d000.s028.t001	verb.cognition
d000.s028.t002	verb.communication
d000.s028.t003	noun.Tops
d000.s028.t004	lauchli
d000.s028.t005	verb.competition
d000.s028.t006	verb.cognition
d000.s028.t007	verb.cognition
d000.s028.t008	noun.attribute
d000.s028.t009	verb.cognition
d000.s028.t010	noun.act
d000.s028.t011	adj.all
d000.s029.t000	noun.attribute
d000.s029.t001	verb.possession
d000.s029.t002	verb.communication
d000.s030.t000	verb.communication
d000.s030.t001	noun.group
d000.s030.t002	verb.social
d000.s031.t000	bloom
d000.s031.t001	outbreak
d000.s031.t002	noun.act
d000.s031.t003	verb.communication
d000.s031.t004	verb.creation
d000.s031.t005	verb.perception
d000.s032.t000	verb.cognition
d000.s032.t001	noun.person
d000.s032.t002	verb.social
d000.s032.t003	verb.possession
d000.s032.t004	verb.possession
d000.s033.t000	verb.communication
d000.s033.t001	verb.creation
d000.s033.t002	verb.change
d001.s000.t000	noun.state
d001.s000.t001	verb.change
d001.s001.t000	verb.creation
d001.s001.t001	noun.cognition
d001.s002.t000	verb.cognition
d001.s002.t001	noun.act
d001.s002.t002	verb.communication
d001.s002.t003	noun.person
d001.s002.t004	adj.all
d001.s002.t005	verb.creation
d001.s002.t006	verb.possession
d001.s003.t000	noun.attribute
d001.s003.t001	noun.person
d001.s003.t002	verb.cognition
d001.s003.t003	verb.cognition
d001.s003.t004	verb.communication
d001.s003.t005	noun.artifact
d001.s004.t000	verb.social
d001.s004.t001	noun.act
d001.s004.t002	adj.all
d001.s004.t003	noun.state
d001.s004.t004	noun.person
d001.s004.t005	verb.possession
d001.s004.t006	verb.creation
d001.s005.t000	noun.communication
d001.s005.t001	lex
d001.s005.t002	verb.change
d001.s005.t003	noun.person
d001.s006.t000	verb.motion
d001.s006.t001	verb.contact
d001.s006.t002	verb.contact
d001.s006.t003	verb.cognition
d001.s006.t004	verb.communication
d001.s007.t000	noun.event
d001.s007.t001	anchor
d001.s007.t002	verb.social
d001.s007.t003	verb.possession
d001.s008.t000	verb.cognition
d001.s008.t001	verb.communication
d001.s009.t000	noun.person
d001.s009.t001	verb.creation
d001.s009.t002	verb.social
d001.s009.t003	noun.possession
d001.s010.t000	verb.change
d001.s011.t000	verb.change
d001.s011.t001	noun.body
d001.s011.t002	verb.cognition
d001.s012.t000	noun.person
d001.s012.t001	verb.creation
d001.s012.t002	verb.possession
d001.s012.t003	verb.social
d001.s012.t004	verb.motion
d001.s013.t000	verb.motion
d001.s013.t001	verb.consumption
d001.s013.t002	noun.time
d001.s013.t003	noun.person
d001.s013.t004	verb.stative
d001.s013.t005	noun.act
d001.s013.t006	obnoxious
d001.s013.t007	noun.person
d001.s013.t008	verb.cognition
d001.s014.t000	noun.act
d001.s015.t000	adj.all
d001.s015.t001	verb.consumption
d001.s015.t002	verb.social
d001.s015.t003	verb.cognition
d001.s016.t000	verb.social
d001.s016.t001	verb.cognition
d001.s016.t002	noun.attribute
d001.s017.t000	verb.change
d001.s017.t001	noun.person
d001.s018.t000	noun.act
d001.s018.t001	verb.consumption
d001.s018.t002	noun.body
d001.s019.t000	verb.possession
d001.s019.t001	noun.possession
d001.s020.t000	verb.perception
d001.s020.t001	noun.person
d001.s020.t002	verb.change
d001.s020.t003	noun.Tops
d001.s021.t000	verb.emotion
d001.s022.t000	verb.cognition
d001.s022.t001	symonds
d001.s022.t002	noun.possession
d001.s023.t000	verb.possession
d001.s023.t001	adj.all
d001.s024.t000	verb.emotion
d001.s024.t001	noun.artifact
d001.s025.t000	lumumba
d001.s026.t000	adj.all
d001.s026.t001	verb.social
d001.s026.t002	verb.change
d001.s026.t003	noun.person
d001.s027.t000	verb.motion
d001.s027.t001	verb.competition
d001.s027.t002	verb.contact
d001.s028.t000	adj.all
d001.s028.t001	noun.person
d001.s028.t002	shaft
d001.s028.t003	verb.communication
d001.s028.t004	noun.event
d001.s028.t005	verb.change
d001.s029.t000	verb.cognition
d001.s029.t001	verb.communication
d001.s029.t002	verb.social
d001.s029.t003	verb.contact
d001.s029.t004	noun.person
d001.s029.t005	noun.cognition
d001.s030.t000	verb.social
d001.s030.t001	noun.possession
d001.s030.t002	verb.communication
d001.s030.t003	verb.cognition
d001.s030.t004	noun.attribute
d001.s030.t005	noun.quantity
d001.s031.t000	continuity
d001.s031.t001	verb.perception
d001.s031.t002	noun.attribute
d001.s032.t000	verb.change
d001.s032.t001	noun.cognition
d001.s032.t002	verb.perception
d001.s033.t000	noun.cognition
d001.s033.t001	verb.cognition
d001.s034.t000	verb.consumption
d001.s034.t001	noun.communication
d001.s035.t000	noun.substance
d001.s035.t001	noun.Tops
d001.s035.t002	verb.communication
d001.s035.t003	noun.possession
d001.s036.t000	verb.cognition
d001.s036.t001	noun.act
d001.s036.t002	barriers
d001.s036.t003	noun.possession
d001.s036.t004	verb.social
d001.s036.t005	noun.Tops
d001.s036.t006	verb.possession
d001.s036.t007	noun.group
d001.s036.t008	noun.possession
d001.s036.t009	verb.change
d001.s036.t010	verb.social
d001.s036.t011	abandonment
d001.s036.t012	noun.event
d001.s037.t000	verb.creation
d001.s037.t001	verb.emotion
d001.s037.t002	verb.social
d001.s037.t003	noun.possession
d001.s038.t000	verb.stative
d001.s038.t001	verb.contact
d001.s038.t002	noun.possession
d001.s039.t000	noun.communication
d001.s039.t001	verb.motion
d002.s000.t000	verb.contact
d002.s000.t001	verb.contact
d002.s000.t002	verb.communication
d002.s000.t003	verb.consumption
d002.s000.t004	verb.motion
d002.s001.t000	verb.communication
d002.s001.t001	verb.contact
d002.s002.t000	noun.person
d002.s002.t001	verb.creation
d002.s002.t002	verb.creation
d002.s002.t003	verb.contact
d002.s002.t004	noun.object
d002.s003.t000	verb.stative
d002.s003.t001	verb.communication
d002.s003.t002	verb.perception
d002.s003.t003	verb.social
d002.s003.t004	verb.cognition
d002.s003.t005	noun.person
d002.s003.t006	verb.creation
d002.s004.t000	prejudiced
d002.s004.t001	verb.change
d002.s004.t002	verb.communication
d002.s004.t003	sandman
d002.s004.t004	noun.communication
d002.s005.t000	verb.competition
d002.s005.t001	noun.act
d002.s006.t000	elephants
d002.s008.t000	verb.perception
d002.s008.t001	verb.creation
d002.s008.t002	noun.attribute
d002.s008.t003	verb.emotion
d002.s009.t000	noun.quantity
d002.s009.t001	verb.motion
d002.s009.t002	verb.social
d002.s009.t003	verb.change
d002.s009.t004	verb.cognition
d002.s009.t005	verb.competition
d002.s010.t000	verb.emotion
d002.s010.t001	verb.stative
d002.s010.t002	verb.contact
d002.s010.t003	evangelicalism
d002.s010.t004	verb.change
d002.s010.t005	verb.stative
d002.s011.t000	noun.artifact
d002.s011.t001	verb.communication
d002.s011.t002	noun.state
d002.s013.t000	verb.emotion
d002.s013.t001	noun.attribute
d002.s014.t000	verb.cognition
d002.s014.t001	verb.competition
d002.s015.t000	noun.artifact
d002.s015.t001	verb.perception
d002.s015.t002	verb.consumption
d002.s015.t003	ars
d002.s016.t000	verb.social
d002.s017.t000	verb.perception
d002.s017.t001	verb.emotion
d002.s017.t002	noun.artifact
d002.s018.t000	verb.communication
d002.s018.t001	verb.social
d002.s019.t000	verb.motion
d002.s020.t000	verb.cognition
d002.s020.t001	verb.social
d002.s020.t002	verb.cognition
d002.s020.t003	verb.cognition
d002.s021.t000	verb.motion
d002.s022.t000	verb.communication
d002.s024.t000	verb.motion
d002.s024.t001	verb.communication
d002.s025.t000	verb.communication
d002.s025.t001	verb.communication
d002.s025.t002	verb.change
d002.s026.t000	noun.artifact
d002.s026.t001	verb.change
d002.s027.t000	verb.change
d002.s027.t001	noun.quantity
d002.s027.t002	verb.perception
d002.s027.t003	1609
d002.s027.t004	verb.change
d002.s027.t005	verb.contact
d002.s027.t006	verb.cognition
d002.s027.t007	noun.animal
d002.s027.t008	noun.quantity
d002.s027.t009	verb.possession
d002.s028.t000	verb.motion
d002.s028.t001	verb.change
d002.s028.t002	verb.perception
d002.s028.t003	noun.person
d002.s028.t004	scotchgard
d002.s029.t000	verb.change
d002.s029.t001	noun.time
d002.s029.t002	verb.motion
d002.s029.t003	verb.perception
d002.s029.t004	verb.change
d002.s029.t005	noun.animal
d002.s029.t006	whole_house
d002.s030.t000	noun.attribute
d002.s030.t001	verb.social
d002.s030.t002	noun.communication
d002.s031.t000	verb.change
d002.s031.t001	verb.change
d002.s031.t002	noun.person
d002.s031.t003	verb.body
d002.s033.t000	noun.act
d002.s034.t000	verb.creation
d002.s034.t001	verb.motion
d002.s036.t000	verb.social
d002.s036.t001	noun.process
d002.s036.t002	noun.attribute
d002.s036.t003	plug
d002.s036.t004	verb.perception
d002.s036.t005	adj.all
d002.s036.t006	verb.body
d002.s036.t007	noun.act
d002.s036.t008	noun.phenomenon
d002.s037.t000	verb.motion
d002.s037.t001	noun.artifact
d002.s038.t000	verb.social
d002.s038.t001	verb.social
d002.s038.t002	noun.time
d002.s039.t000	noun.artifact
d002.s039.t001	verb.motion
d002.s040.t000	adj.all
d002.s040.t001	adj.all
d002.s041.t000	verb.creation
d002.s041.t001	cardinals
d002.s041.t002	noun.person
d002.s042.t000	verb.communication
d002.s042.t001	verb.motion
d002.s042.t002	noun.artifact
d002.s042.t003	verb.change
d002.s043.t000	verb.communication
d002.s043.t001	verb.motion
d002.s043.t002	verb.body
d002.s043.t003	unstrung
d002.s044.t000	verb.motion
d002.s044.t001	verb.body
d002.s044.t002	world
d002.s044.t003	verb.contact
d002.s045.t000	verb.motion
d002.s045.t001	verb.change
d002.s046.t000	verb.motion
d002.s046.t001	noun.act
d002.s046.t002	verb.creation
d002.s046.t003	noun.feeling
d002.s046.t004	verb.motion
d002.s046.t005	noun.quantity
d002.s046.t006	verb.motion
d002.s047.t000	verb.stative
d002.s049.t000	verb.contact
d002.s049.t001	verb.competition
d002.s049.t002	quasi_recitative
d002.s049.t003	verb.competition
d002.s049.t004	noun.possession
d002.s049.t005	noun.person
d002.s049.t006	verb.motion
d002.s049.t007	noun.time
d002.s049.t008	noun.attribute
d002.s050.t000	ascribed
d002.s050.t001	noun.artifact
d002.s050.t002	verb.motion
d002.s050.t003	verb.contact
d002.s050.t004	verb.perception
d002.s050.t005	verb.creation
d002.s050.t006	noun.act
d002.s050.t007	noun.process
d002.s050.t008	verb.social
d002.s050.t009	adj.all
d002.s050.t010	verb.contact
d002.s050.t011	verb.contact
d002.s050.t012	noun.attribute
d002.s050.t013	verb.contact
d002.s050.t014	six_foot
d002.s050.t015	noun.artifact
d002.s051.t000	verb.social
d002.s051.t001	verb.creation
d002.s051.t002	verb.creation
d002.s051.t003	adj.all
d002.s052.t000	verb.cognition
d002.s052.t001	verb.motion
d002.s052.t002	verb.social
d002.s052.t003	noun.person
d002.s052.t004	mid_continent
d002.s052.t005	noun.location
d002.s052.t006	verb.contact
d002.s052.t007	noun.feeling
d002.s054.t000	verb.creation
d002.s055.t000	verb.motion
d002.s056.t000	verb.motion
d002.s056.t001	verb.motion
d002.s057.t000	adj.all
d002.s057.t001	verb.competition
d002.s057.t002	noun.attribute
d002.s057.t003	departing
